{
    "mongodb" : {
        "uri" : "mongodb://nodejitsu:b8e7aabbf2913b3a243c7b1e201c8067@dharma.mongohq.com:10047/nodejitsudb9584547914"
    },
    "daemon":{
        "webSocketServer":{
            "port":80,
            "path":"/getComments"
        }
    }
}